<?xml version="1.0" encoding="UTF-8" standalone="no"?>
<svg
   xmlns:dc="http://purl.org/dc/elements/1.1/"
   xmlns:cc="http://creativecommons.org/ns#"
   xmlns:rdf="http://www.w3.org/1999/02/22-rdf-syntax-ns#"
   xmlns:svg="http://www.w3.org/2000/svg"
   xmlns="http://www.w3.org/2000/svg"
   xmlns:sodipodi="http://sodipodi.sourceforge.net/DTD/sodipodi-0.dtd"
   xmlns:inkscape="http://www.inkscape.org/namespaces/inkscape"
   inkscape:version="1.0alpha2 (119fb3b5e8, 2019-06-21, custom)"
   sodipodi:docname="draw-cuboid-symbolic.svg"
   viewBox="0 0 16 16"
   height="16"
   width="16"
   id="svg1"
   version="1.1">
  <metadata
     id="metadata1282">
    <rdf:RDF>
      <cc:Work
         rdf:about="">
        <dc:format>image/svg+xml</dc:format>
        <dc:type
           rdf:resource="http://purl.org/dc/dcmitype/StillImage" />
      </cc:Work>
    </rdf:RDF>
  </metadata>
  <style
     id="s0">.base {  }
.success {  }
.warning {  }
.error {  }
.dark {  }
</style>
  <style
     id="s2"> 
     @import '../../highlights.css'; 
  </style>
  <defs
     id="defs1280">
    <inkscape:path-effect
       attempt_force_join="true"
       miter_limit="100"
       linejoin_type="round"
       line_width="1.5"
       linecap_type="butt"
       is_visible="true"
       id="path-effect979"
       effect="join_type" />
  </defs>
  <sodipodi:namedview
     inkscape:document-rotation="0"
     inkscape:current-layer="svg1"
     inkscape:window-maximized="1"
     inkscape:window-y="27"
     inkscape:window-x="0"
     inkscape:window-height="1016"
     inkscape:window-width="1920"
     inkscape:cy="10.823388"
     inkscape:cx="6.7490701"
     inkscape:zoom="31.678384"
     showgrid="true"
     id="namedview"
     guidetolerance="10"
     gridtolerance="10"
     objecttolerance="10"
     inkscape:snap-others="false">
    <inkscape:grid
       id="grid"
       type="xygrid" />
  </sodipodi:namedview>
  <g
     id="g0"
     inkscape:label="draw-cuboid">
    <path
       inkscape:connector-curvature="0"
       style="opacity:0"
       d="M 0,0 H 16 V 16 H 0 Z"
       id="background" />
    <path
       id="polygon1116"
       style="opacity:0.4"
       inkscape:label="right"
       transform="matrix(0.49102052,0,0,0.49102052,-473.83817,-187.11363)"
       d="m 993.53,404.59 -12.23,7.09 v -14.31 l 12.23,-7.1 z"
       class="warning" />
    <path
       id="polygon1118"
       style="opacity:1"
       inkscape:label="left"
       transform="matrix(0.49102052,0,0,0.49102052,-473.83817,-187.11363)"
       d="m 969.08,390.27 v 14.32 l 12.22,7.09 v -14.31 z"
       class="warning" />
    <path
       id="polygon1122"
       style="opacity:0.2"
       inkscape:label="top"
       transform="matrix(0.49102052,0,0,0.49102052,-473.83817,-187.11363)"
       d="m 981.3,397.37 -12.22,-7.1 12.22,-7.09 12.23,7.09 z"
       class="warning" />
    <path
       class="base"
       inkscape:label="outline"
       inkscape:original-d="M 8.0002664,8.0031909 14.005452,4.5169495 8.0002708,1.0356139 2,4.5169495 v 7.0314135 l 6.0002708,3.481335 6.0051812,-3.481335 V 4.5169495 L 8.0002664,8.0031909 2,4.5169495 8.0002708,8.0031952 v 7.0265028"
       inkscape:path-effect="#path-effect979"
       d="M 8.3768163,8.6518127 14.382002,5.1655713 A 0.75,0.75 0 0 0 14.381606,3.8680978 L 8.3764244,0.38676223 A 0.75,0.75 0 0 0 7.6238869,0.38689581 L 1.6236161,3.8682314 A 0.75,0.75 0 0 0 1.25,4.5169495 v 7.0314135 a 0.75,0.75 0 0 0 0.3736161,0.648718 l 6.0002708,3.481335 a 0.75,0.75 0 0 0 0.7525374,1.34e-4 l 6.0051817,-3.481335 a 0.75,0.75 0 0 0 0.373846,-0.648852 V 4.5169495 A 0.75,0.75 0 0 0 13.628902,3.8683277 L 7.6237165,7.3545691 a 0.75,0.75 0 0 0 0.7533306,1.341e-4 L 2.3767807,3.8684618 A 0.75,0.75 0 0 0 1.6232191,5.1654371 L 7.6234899,8.6516828 A 0.75,0.75 0 0 0 7.2502708,8.0031952 v 7.0265028 h 1.5 V 8.0031952 A 0.75,0.75 0 0 0 8.3770517,7.3547076 L 2.3767809,3.8684619 A 0.75,0.75 0 0 0 1.6232193,5.1654372 l 6.0002664,3.4862414 a 0.75,0.75 0 0 0 0.7533306,1.341e-4 L 14.382002,5.1655713 a 0.75,0.75 0 0 0 -1.12655,-0.6486218 v 7.0314135 a 0.75,0.75 0 0 0 0.373846,-0.648852 l -6.0051807,3.481335 a 0.75,0.75 0 0 0 0.7525374,1.34e-4 L 2.3763839,10.899645 A 0.75,0.75 0 0 0 2.75,11.548363 V 4.5169495 A 0.75,0.75 0 0 0 2.3763839,5.1656676 L 8.3766547,1.684332 A 0.75,0.75 0 0 0 7.6241172,1.6844656 L 13.629298,5.1658012 A 0.75,0.75 0 0 0 13.628902,3.8683277 L 7.6237165,7.3545691 Z"
       id="path946"
       inkscape:connector-curvature="0" />
  </g>
</svg>
