<?xml version="1.0" encoding="UTF-8" standalone="no"?>
<svg
   xmlns:dc="http://purl.org/dc/elements/1.1/"
   xmlns:cc="http://creativecommons.org/ns#"
   xmlns:rdf="http://www.w3.org/1999/02/22-rdf-syntax-ns#"
   xmlns:svg="http://www.w3.org/2000/svg"
   xmlns="http://www.w3.org/2000/svg"
   xmlns:sodipodi="http://sodipodi.sourceforge.net/DTD/sodipodi-0.dtd"
   xmlns:inkscape="http://www.inkscape.org/namespaces/inkscape"
   inkscape:version="1.0alpha2 (119fb3b5e8, 2019-06-21, custom)"
   sodipodi:docname="tool-spray-symbolic.svg"
   viewBox="0 0 16 16"
   height="16"
   width="16"
   id="svg1"
   version="1.1">
  <style
     id="s0">.base {  }
.success {  }
.warning {  }
.error {  }
.dark {  }
</style>
  <style
     id="s2"> 
     @import '../../highlights.css'; 
  </style>
  <metadata
     id="metadata2833">
    <rdf:RDF>
      <cc:Work
         rdf:about="">
        <dc:format>image/svg+xml</dc:format>
        <dc:type
           rdf:resource="http://purl.org/dc/dcmitype/StillImage" />
      </cc:Work>
    </rdf:RDF>
  </metadata>
  <defs
     id="defs2831" />
  <sodipodi:namedview
     inkscape:document-rotation="0"
     inkscape:current-layer="svg1"
     inkscape:window-maximized="1"
     inkscape:window-y="27"
     inkscape:window-x="0"
     inkscape:window-height="1016"
     inkscape:window-width="1920"
     inkscape:cy="9.89555"
     inkscape:cx="-0.80500256"
     inkscape:zoom="31.678384"
     showgrid="true"
     id="namedview"
     guidetolerance="10"
     gridtolerance="10"
     objecttolerance="10">
    <inkscape:grid
       id="grid"
       type="xygrid" />
  </sodipodi:namedview>
  <g
     id="g0"
     inkscape:label="tool-spray">
    <path
       inkscape:connector-curvature="0"
       style="opacity:0"
       d="M 0,0 H 16 V 16 H 0 Z"
       id="background" />
    <path
       class="base"
       inkscape:connector-curvature="0"
       id="path2411"
       d="M 13.247345,8.0130065 H 8.2786374 c -0.9478462,0 -1.7268007,0.7682705 -1.7210889,1.7210875 L 6.5891158,15 H 15 L 14.968433,9.734094 C 14.962721,8.781277 14.195191,8.0130065 13.247345,8.0130065 Z"
       sodipodi:nodetypes="sssccss" />
    <path
       class="base"
       id="polygon2413"
       transform="matrix(0.49886622,0,0,0.49886622,-461.04309,-311.95964)"
       d="m 951.44,639.44 -1.33,-4.08 h -8.59 l -1.32,4.08 z" />
    <path
       class="base"
       inkscape:connector-curvature="0"
       id="path2415"
       d="m 12.041102,2.6359435 c 0.02057,-0.847823 -2.3741056,-0.8428357 -2.3945573,0 L 9.6130626,4.0157834 H 12.00762 Z"
       sodipodi:nodetypes="ssccs" />
    <g
       style="opacity:0.5"
       id="g1009">
      <path
         class="base"
         id="circle2419"
         d="M 7.5109411,3.9836175 A 0.33070573,0.33070573 0 0 1 7.1802354,4.3143233 0.33070573,0.33070573 0 0 1 6.8495297,3.9836175 0.33070573,0.33070573 0 0 1 7.1802354,3.6529118 0.33070573,0.33070573 0 0 1 7.5109411,3.9836175" />
      <path
         class="base"
         id="circle2421"
         d="M 5.7078083,4.2277079 A 0.71652919,0.71652919 0 0 1 4.9912791,4.9442371 0.71652919,0.71652919 0 0 1 4.2747499,4.2277079 0.71652919,0.71652919 0 0 1 4.9912791,3.5111787 0.71652919,0.71652919 0 0 1 5.7078083,4.2277079" />
      <path
         class="base"
         id="circle2423"
         d="M 3.302327,4.4718223 A 1.1062895,1.1062895 0 0 1 2.1960375,5.5781118 1.1062895,1.1062895 0 0 1 1.089748,4.4718223 1.1062895,1.1062895 0 0 1 2.1960375,3.3655328 1.1062895,1.1062895 0 0 1 3.302327,4.4718223" />
      <path
         class="base"
         id="circle2427"
         d="M 8.3219562,2.6844211 A 0.33070573,0.33070573 0 0 1 7.9912505,3.0151268 0.33070573,0.33070573 0 0 1 7.6605448,2.6844211 0.33070573,0.33070573 0 0 1 7.9912505,2.3537153 0.33070573,0.33070573 0 0 1 8.3219562,2.6844211" />
      <path
         class="base"
         id="circle2429"
         d="M 7.1408723,2.5269566 A 0.71652919,0.71652919 0 0 1 6.4243431,3.2434857 0.71652919,0.71652919 0 0 1 5.7078139,2.5269566 0.71652919,0.71652919 0 0 1 6.4243431,1.8104274 0.71652919,0.71652919 0 0 1 7.1408723,2.5269566" />
      <path
         class="base"
         id="circle2431"
         d="M 4.8180522,2.1056976 A 1.1062895,1.1062895 0 0 1 3.7117627,3.2119871 1.1062895,1.1062895 0 0 1 2.6054732,2.1056976 1.1062895,1.1062895 0 0 1 3.7117627,0.99940813 1.1062895,1.1062895 0 0 1 4.8180522,2.1056976" />
      <path
         id="circle2435"
         d="M 8.0857478,5.2906957 A 0.33070573,0.33070573 0 0 1 7.7550421,5.6214014 0.33070573,0.33070573 0 0 1 7.4243363,5.2906957 0.33070573,0.33070573 0 0 1 7.7550421,4.9599899 0.33070573,0.33070573 0 0 1 8.0857478,5.2906957"
         class="st1  base" />
      <path
         id="circle2437"
         d="M 6.8101685,6.2749386 A 0.82676435,0.82676435 0 0 1 5.9834042,7.1017029 0.82676435,0.82676435 0 0 1 5.1566398,6.2749386 0.82676435,0.82676435 0 0 1 5.9834042,5.4481742 0.82676435,0.82676435 0 0 1 6.8101685,6.2749386"
         class="st1  base" />
      <path
         id="circle2439"
         d="M 4.8338001,7.5938392 A 1.318886,1.318886 0 0 1 3.514914,8.9127252 1.318886,1.318886 0 0 1 2.196028,7.5938392 1.318886,1.318886 0 0 1 3.514914,6.2749531 1.318886,1.318886 0 0 1 4.8338001,7.5938392"
         class="st1  base" />
      <path
         id="circle2443"
         d="M 8.6329791,3.8733892 A 0.21259658,0.21259658 0 0 1 8.4203825,4.0859858 0.21259658,0.21259658 0 0 1 8.2077859,3.8733892 0.21259658,0.21259658 0 0 1 8.4203825,3.6607927 0.21259658,0.21259658 0 0 1 8.6329791,3.8733892"
         class="st1  base" />
    </g>
  </g>
</svg>
